1|Llet|7,95|5
2|Chocolata|10,95|10
3|Knider Bueno|2,05|200
4|Aigua|8,1|7
5|Bicicleta|200,0|1
6|Pa|15,25|25
1|Llet|7,95|5
2|Chocolata|10,95|10
3|Knider Bueno|2,05|200
4|Aigua|8,1|7
5|Bicicleta|200,0|1
6|Pa|15,25|25
